\relax 
\providecommand\hyper@newdestlabel[2]{}
\providecommand\HyperFirstAtBeginDocument{\AtBeginDocument}
\HyperFirstAtBeginDocument{\ifx\hyper@anchor\@undefined
\global\let\oldcontentsline\contentsline
\gdef\contentsline#1#2#3#4{\oldcontentsline{#1}{#2}{#3}}
\global\let\oldnewlabel\newlabel
\gdef\newlabel#1#2{\newlabelxx{#1}#2}
\gdef\newlabelxx#1#2#3#4#5#6{\oldnewlabel{#1}{{#2}{#3}}}
\AtEndDocument{\ifx\hyper@anchor\@undefined
\let\contentsline\oldcontentsline
\let\newlabel\oldnewlabel
\fi}
\fi}
\global\let\hyper@last\relax 
\gdef\HyperFirstAtBeginDocument#1{#1}
\providecommand\HyField@AuxAddToFields[1]{}
\providecommand\HyField@AuxAddToCoFields[2]{}
\select@language{english}
\@writefile{toc}{\select@language{english}}
\@writefile{lof}{\select@language{english}}
\@writefile{lot}{\select@language{english}}
\newlabel{index::doc}{{}{1}{}{section*.2}{}}
\@writefile{toc}{\contentsline {chapter}{\numberline {1}Introduction}{3}{chapter.1}}
\@writefile{lof}{\addvspace {10\p@ }}
\@writefile{lot}{\addvspace {10\p@ }}
\newlabel{index:introduction}{{1}{3}{Introduction}{chapter.1}{}}
\newlabel{index:chapterintroduction}{{1}{3}{Introduction}{chapter.1}{}}
\@writefile{toc}{\contentsline {section}{\numberline {1.1}Project information}{3}{section.1.1}}
\newlabel{intro:project-information}{{1.1}{3}{Project information}{section.1.1}{}}
\newlabel{intro::doc}{{1.1}{3}{Project information}{section.1.1}{}}
\@writefile{toc}{\contentsline {section}{\numberline {1.2}Background}{4}{section.1.2}}
\newlabel{intro:background}{{1.2}{4}{Background}{section.1.2}{}}
\@writefile{toc}{\contentsline {chapter}{\numberline {2}General Information}{5}{chapter.2}}
\@writefile{lof}{\addvspace {10\p@ }}
\@writefile{lot}{\addvspace {10\p@ }}
\newlabel{index:general-information}{{2}{5}{General Information}{chapter.2}{}}
\newlabel{index:chapterinformation}{{2}{5}{General Information}{chapter.2}{}}
\@writefile{toc}{\contentsline {section}{\numberline {2.1}osmscigrid}{5}{section.2.1}}
\newlabel{about:osmscigrid}{{2.1}{5}{osmscigrid}{section.2.1}{}}
\newlabel{about::doc}{{2.1}{5}{osmscigrid}{section.2.1}{}}
\@writefile{toc}{\contentsline {subsection}{\numberline {2.1.1}Features}{5}{subsection.2.1.1}}
\newlabel{about:features}{{2.1.1}{5}{Features}{subsection.2.1.1}{}}
\@writefile{toc}{\contentsline {subsection}{\numberline {2.1.2}Installation}{5}{subsection.2.1.2}}
\newlabel{about:installation}{{2.1.2}{5}{Installation}{subsection.2.1.2}{}}
\@writefile{toc}{\contentsline {subsection}{\numberline {2.1.3}Installation qplot}{6}{subsection.2.1.3}}
\newlabel{about:installation-qplot}{{2.1.3}{6}{Installation qplot}{subsection.2.1.3}{}}
\@writefile{toc}{\contentsline {subsection}{\numberline {2.1.4}Download of WorldBorders}{6}{subsection.2.1.4}}
\newlabel{about:download-of-worldborders}{{2.1.4}{6}{Download of WorldBorders}{subsection.2.1.4}{}}
\@writefile{toc}{\contentsline {subsection}{\numberline {2.1.5}Bugfixes:}{6}{subsection.2.1.5}}
\newlabel{about:bugfixes}{{2.1.5}{6}{Bugfixes:}{subsection.2.1.5}{}}
\@writefile{toc}{\contentsline {subsection}{\numberline {2.1.6}License}{7}{subsection.2.1.6}}
\newlabel{about:license}{{2.1.6}{7}{License}{subsection.2.1.6}{}}
\@writefile{toc}{\contentsline {subsection}{\numberline {2.1.7}Data\sphinxhyphen {}License}{7}{subsection.2.1.7}}
\newlabel{about:data-license}{{2.1.7}{7}{Data\sphinxhyphen {}License}{subsection.2.1.7}{}}
\@writefile{toc}{\contentsline {subsection}{\numberline {2.1.8}The Team}{7}{subsection.2.1.8}}
\newlabel{about:the-team}{{2.1.8}{7}{The Team}{subsection.2.1.8}{}}
\@writefile{toc}{\contentsline {chapter}{\numberline {3}Usage}{9}{chapter.3}}
\@writefile{lof}{\addvspace {10\p@ }}
\@writefile{lot}{\addvspace {10\p@ }}
\newlabel{index:usage}{{3}{9}{Usage}{chapter.3}{}}
\newlabel{index:chapterdatastructure}{{3}{9}{Usage}{chapter.3}{}}
\@writefile{toc}{\contentsline {section}{\numberline {3.1}Usage}{9}{section.3.1}}
\newlabel{usage:usage}{{3.1}{9}{Usage}{section.3.1}{}}
\newlabel{usage::doc}{{3.1}{9}{Usage}{section.3.1}{}}
\@writefile{toc}{\contentsline {section}{\numberline {3.2}Example: Creating a dataset for Ukraine}{9}{section.3.2}}
\newlabel{usage:example-creating-a-dataset-for-ukraine}{{3.2}{9}{Example: Creating a dataset for Ukraine}{section.3.2}{}}
\@writefile{toc}{\contentsline {section}{\numberline {3.3}Working with the SciGRID network class}{10}{section.3.3}}
\newlabel{usage:working-with-the-scigrid-network-class}{{3.3}{10}{Working with the SciGRID network class}{section.3.3}{}}
\@writefile{toc}{\contentsline {section}{\numberline {3.4}Extracting OSM meta data}{12}{section.3.4}}
\newlabel{usage:extracting-osm-meta-data}{{3.4}{12}{Extracting OSM meta data}{section.3.4}{}}
\@writefile{toc}{\contentsline {section}{\numberline {3.5}Overview OSM pipeline parameters in Europe}{12}{section.3.5}}
\newlabel{usage:overview-osm-pipeline-parameters-in-europe}{{3.5}{12}{Overview OSM pipeline parameters in Europe}{section.3.5}{}}
\@writefile{toc}{\contentsline {section}{\numberline {3.6}Country classification}{15}{section.3.6}}
\newlabel{usage:country-classification}{{3.6}{15}{Country classification}{section.3.6}{}}
\@writefile{toc}{\contentsline {section}{\numberline {3.7}Exporting and Importing Data}{15}{section.3.7}}
\newlabel{usage:exporting-and-importing-data}{{3.7}{15}{Exporting and Importing Data}{section.3.7}{}}
\@writefile{toc}{\contentsline {section}{\numberline {3.8}Visualization}{15}{section.3.8}}
\newlabel{usage:visualization}{{3.8}{15}{Visualization}{section.3.8}{}}
